IST707_HW4_Clustering
…
## NULL

df1<-df

##`{r} ##unlist(df1$M_author) ##

##df1$M_author= as.numeric(df1$M_author)

##REMOVE AUTHOR
df1 = df1[, -c(1)]

df1

## # A tibble: 85 x 70
##        a   all  also    an   and   any   are    as    at    be  been   but    by
##    <dbl> <dbl> <dbl> <dbl> <dbl> <dbl> <dbl> <dbl> <dbl> <dbl> <dbl> <dbl> <dbl>
##  1 0.28  0.052 0.009 0.096 0.358 0.026 0.131 0.122 0.017 0.411 0.026 0.009 0.14 
##  2 0.177 0.063 0.013 0.038 0.393 0.063 0.051 0.139 0.114 0.393 0.165 0     0.139
##  3 0.339 0.09  0.008 0.03  0.301 0.008 0.068 0.203 0.023 0.474 0.015 0.038 0.173
##  4 0.27  0.024 0.016 0.024 0.262 0.056 0.064 0.111 0.056 0.365 0.127 0.032 0.167
##  5 0.303 0.054 0.027 0.034 0.404 0.04  0.128 0.148 0.013 0.344 0.047 0.061 0.209
##  6 0.245 0.059 0.007 0.067 0.282 0.052 0.111 0.252 0.015 0.297 0.03  0.037 0.186
##  7 0.349 0.036 0.007 0.029 0.335 0.058 0.087 0.073 0.116 0.378 0.044 0.007 0.102
##  8 0.414 0.083 0.009 0.018 0.478 0.046 0.11  0.074 0.037 0.331 0.046 0.055 0.092
##  9 0.248 0.04  0.007 0.04  0.356 0.034 0.154 0.161 0.047 0.289 0.027 0.027 0.168
## 10 0.442 0.062 0.006 0.075 0.423 0.037 0.093 0.1   0.031 0.379 0.025 0.037 0.174
## # ... with 75 more rows, and 57 more variables: can <dbl>, do <dbl>,
## #   down <dbl>, even <dbl>, every <dbl>, `for` <dbl>, from <dbl>, had <dbl>,
## #   has <dbl>, have <dbl>, her <dbl>, his <dbl>, `if` <dbl>, `in` <dbl>,
## #   into <dbl>, is <dbl>, it <dbl>, its <dbl>, may <dbl>, more <dbl>,
## #   must <dbl>, my <dbl>, no <dbl>, not <dbl>, now <dbl>, of <dbl>, on <dbl>,
## #   one <dbl>, only <dbl>, or <dbl>, our <dbl>, shall <dbl>, should <dbl>,
## #   so <dbl>, some <dbl>, such <dbl>, than <dbl>, that <dbl>, the <dbl>,
## #   their <dbl>, then <dbl>, there <dbl>, things <dbl>, this <dbl>, to <dbl>,
## #   up <dbl>, upon <dbl>, was <dbl>, were <dbl>, what <dbl>, when <dbl>,
…
